%!PS-Adobe-3.0 EPSF-3.0
%%Creator: cairo 1.16.0 (https://cairographics.org)
%%CreationDate: Wed Feb  5 10:44:38 2020
%%Pages: 1
%%DocumentData: Clean7Bit
%%LanguageLevel: 2
%%BoundingBox: 9 2 37 47
%%EndComments
%%BeginProlog
50 dict begin
/q { gsave } bind def
/Q { grestore } bind def
/cm { 6 array astore concat } bind def
/w { setlinewidth } bind def
/J { setlinecap } bind def
/j { setlinejoin } bind def
/M { setmiterlimit } bind def
/d { setdash } bind def
/m { moveto } bind def
/l { lineto } bind def
/c { curveto } bind def
/h { closepath } bind def
/re { exch dup neg 3 1 roll 5 3 roll moveto 0 rlineto
      0 exch rlineto 0 rlineto closepath } bind def
/S { stroke } bind def
/f { fill } bind def
/f* { eofill } bind def
/n { newpath } bind def
/W { clip } bind def
/W* { eoclip } bind def
/BT { } bind def
/ET { } bind def
/BDC { mark 3 1 roll /BDC pdfmark } bind def
/EMC { mark /EMC pdfmark } bind def
/cairo_store_point { /cairo_point_y exch def /cairo_point_x exch def } def
/Tj { show currentpoint cairo_store_point } bind def
/TJ {
  {
    dup
    type /stringtype eq
    { show } { -0.001 mul 0 cairo_font_matrix dtransform rmoveto } ifelse
  } forall
  currentpoint cairo_store_point
} bind def
/cairo_selectfont { cairo_font_matrix aload pop pop pop 0 0 6 array astore
    cairo_font exch selectfont cairo_point_x cairo_point_y moveto } bind def
/Tf { pop /cairo_font exch def /cairo_font_matrix where
      { pop cairo_selectfont } if } bind def
/Td { matrix translate cairo_font_matrix matrix concatmatrix dup
      /cairo_font_matrix exch def dup 4 get exch 5 get cairo_store_point
      /cairo_font where { pop cairo_selectfont } if } bind def
/Tm { 2 copy 8 2 roll 6 array astore /cairo_font_matrix exch def
      cairo_store_point /cairo_font where { pop cairo_selectfont } if } bind def
/g { setgray } bind def
/rg { setrgbcolor } bind def
/d1 { setcachedevice } bind def
/cairo_data_source {
  CairoDataIndex CairoData length lt
    { CairoData CairoDataIndex get /CairoDataIndex CairoDataIndex 1 add def }
    { () } ifelse
} def
/cairo_flush_ascii85_file { cairo_ascii85_file status { cairo_ascii85_file flushfile } if } def
/cairo_image { image cairo_flush_ascii85_file } def
/cairo_imagemask { imagemask cairo_flush_ascii85_file } def
%%EndProlog
%%BeginSetup
%%EndSetup
%%Page: 1 1
%%BeginPageSetup
%%PageBoundingBox: 9 2 37 47
%%EndPageSetup
q 9 2 28 45 rectclip
1 0 0 -1 0 47 cm q
0.0705882 0.247059 0.0588235 rg
1.40625 w
1 J
1 j
[] 0.0 d
4 M q 1 0 0 1 0 0 cm
35.418 37.645 m 24.805 30.422 l 10.926 37.027 l 14.961 29.109 m 23.141 
33.996 l 31.43 29.566 l 18.996 21.633 m 23.141 24.023 l 27.336 21.441 l 
22.926 12.289 m 24.844 30.422 l 22.996 12.672 m 10.551 37.125 l 22.742 44.285
 l 22.984 7.883 l 22.945 12.602 l 35.418 37.645 l 22.742 44.141 l 16.613
 7.02 m 17.527 -0.668 27.707 -2.145 29.457 6.813 c S Q
0.701961 g
23.797 7.336 m 23.797 7.812 23.422 8.195 22.961 8.195 c 22.496 8.195 22.121
 7.812 22.121 7.336 c 22.121 6.863 22.496 6.477 22.961 6.477 c 23.422 6.477
 23.797 6.863 23.797 7.336 c h
23.797 7.336 m f
0.0705882 0.247059 0.0588235 rg
1.921508 w
q 1 0 0 0.952178 0 0 cm
23.797 7.704 m 23.797 8.205 23.422 8.607 22.961 8.607 c 22.496 8.607 22.121
 8.205 22.121 7.704 c 22.121 7.208 22.496 6.802 22.961 6.802 c 23.422 6.802
 23.797 7.208 23.797 7.704 c h
23.797 7.704 m S Q
Q Q
showpage
%%Trailer
end
%%EOF
